<mxfile host="app.diagrams.net" modified="2024-05-29T22:03:51.993Z" agent="Mozilla/5.0 (Windows NT 10.0; Win64; x64) AppleWebKit/537.36 (KHTML, like Gecko) Chrome/124.0.0.0 Safari/537.36" etag="KJlG8DluOscYIxuZSrfy" version="24.4.10" type="device">
  <diagram name="Сторінка-1" id="FktPF1krb4kD4lQ-49oG">
    <mxGraphModel dx="1947" dy="434" grid="1" gridSize="10" guides="1" tooltips="1" connect="1" arrows="1" fold="1" page="1" pageScale="1" pageWidth="827" pageHeight="1169" math="0" shadow="0">
      <root>
        <mxCell id="0" />
        <mxCell id="1" parent="0" />
        <mxCell id="DxzTM2p7qGvY_Ps1vkA8-1" value="Money" style="swimlane;fontStyle=1;align=center;verticalAlign=top;childLayout=stackLayout;horizontal=1;startSize=26;horizontalStack=0;resizeParent=1;resizeParentMax=0;resizeLast=0;collapsible=1;marginBottom=0;whiteSpace=wrap;html=1;" vertex="1" parent="1">
          <mxGeometry x="-200" y="255" width="160" height="120" as="geometry" />
        </mxCell>
        <mxCell id="DxzTM2p7qGvY_Ps1vkA8-2" value="- WholePart:&amp;nbsp;int&lt;div&gt;-&amp;nbsp;FractionalPart: int&lt;br&gt;&lt;div&gt;&lt;br&gt;&lt;/div&gt;&lt;/div&gt;" style="text;strokeColor=none;fillColor=none;align=left;verticalAlign=top;spacingLeft=4;spacingRight=4;overflow=hidden;rotatable=0;points=[[0,0.5],[1,0.5]];portConstraint=eastwest;whiteSpace=wrap;html=1;" vertex="1" parent="DxzTM2p7qGvY_Ps1vkA8-1">
          <mxGeometry y="26" width="160" height="44" as="geometry" />
        </mxCell>
        <mxCell id="DxzTM2p7qGvY_Ps1vkA8-3" value="" style="line;strokeWidth=1;fillColor=none;align=left;verticalAlign=middle;spacingTop=-1;spacingLeft=3;spacingRight=3;rotatable=0;labelPosition=right;points=[];portConstraint=eastwest;strokeColor=inherit;" vertex="1" parent="DxzTM2p7qGvY_Ps1vkA8-1">
          <mxGeometry y="70" width="160" height="8" as="geometry" />
        </mxCell>
        <mxCell id="DxzTM2p7qGvY_Ps1vkA8-4" value="+ SetAmount(int, int): void&lt;div&gt;+ ToString(): string&lt;br&gt;&lt;/div&gt;" style="text;strokeColor=none;fillColor=none;align=left;verticalAlign=top;spacingLeft=4;spacingRight=4;overflow=hidden;rotatable=0;points=[[0,0.5],[1,0.5]];portConstraint=eastwest;whiteSpace=wrap;html=1;" vertex="1" parent="DxzTM2p7qGvY_Ps1vkA8-1">
          <mxGeometry y="78" width="160" height="42" as="geometry" />
        </mxCell>
        <mxCell id="DxzTM2p7qGvY_Ps1vkA8-5" value="Product" style="swimlane;fontStyle=1;align=center;verticalAlign=top;childLayout=stackLayout;horizontal=1;startSize=26;horizontalStack=0;resizeParent=1;resizeParentMax=0;resizeLast=0;collapsible=1;marginBottom=0;whiteSpace=wrap;html=1;" vertex="1" parent="1">
          <mxGeometry x="25" y="255" width="170" height="130" as="geometry" />
        </mxCell>
        <mxCell id="DxzTM2p7qGvY_Ps1vkA8-6" value="- Name: string&lt;div&gt;-&amp;nbsp;Price: money&lt;/div&gt;&lt;div&gt;- Unit: string&lt;/div&gt;&lt;div&gt;&lt;br&gt;&lt;div&gt;&lt;br&gt;&lt;/div&gt;&lt;/div&gt;" style="text;strokeColor=none;fillColor=none;align=left;verticalAlign=top;spacingLeft=4;spacingRight=4;overflow=hidden;rotatable=0;points=[[0,0.5],[1,0.5]];portConstraint=eastwest;whiteSpace=wrap;html=1;" vertex="1" parent="DxzTM2p7qGvY_Ps1vkA8-5">
          <mxGeometry y="26" width="170" height="54" as="geometry" />
        </mxCell>
        <mxCell id="DxzTM2p7qGvY_Ps1vkA8-7" value="" style="line;strokeWidth=1;fillColor=none;align=left;verticalAlign=middle;spacingTop=-1;spacingLeft=3;spacingRight=3;rotatable=0;labelPosition=right;points=[];portConstraint=eastwest;strokeColor=inherit;" vertex="1" parent="DxzTM2p7qGvY_Ps1vkA8-5">
          <mxGeometry y="80" width="170" height="8" as="geometry" />
        </mxCell>
        <mxCell id="DxzTM2p7qGvY_Ps1vkA8-8" value="+ DecreasePrice(int, int): void&lt;div&gt;+ ToString(): string&lt;br&gt;&lt;/div&gt;" style="text;strokeColor=none;fillColor=none;align=left;verticalAlign=top;spacingLeft=4;spacingRight=4;overflow=hidden;rotatable=0;points=[[0,0.5],[1,0.5]];portConstraint=eastwest;whiteSpace=wrap;html=1;" vertex="1" parent="DxzTM2p7qGvY_Ps1vkA8-5">
          <mxGeometry y="88" width="170" height="42" as="geometry" />
        </mxCell>
        <mxCell id="DxzTM2p7qGvY_Ps1vkA8-9" value="WarehouseItem" style="swimlane;fontStyle=1;align=center;verticalAlign=top;childLayout=stackLayout;horizontal=1;startSize=26;horizontalStack=0;resizeParent=1;resizeParentMax=0;resizeLast=0;collapsible=1;marginBottom=0;whiteSpace=wrap;html=1;" vertex="1" parent="1">
          <mxGeometry x="25" y="475" width="180" height="140" as="geometry" />
        </mxCell>
        <mxCell id="DxzTM2p7qGvY_Ps1vkA8-10" value="- Product: product&lt;div&gt;-&amp;nbsp;LastDeliveryDate: DateTime&lt;/div&gt;&lt;div&gt;- Quantity: int&lt;/div&gt;&lt;div&gt;&lt;br&gt;&lt;div&gt;&lt;br&gt;&lt;/div&gt;&lt;/div&gt;" style="text;strokeColor=none;fillColor=none;align=left;verticalAlign=top;spacingLeft=4;spacingRight=4;overflow=hidden;rotatable=0;points=[[0,0.5],[1,0.5]];portConstraint=eastwest;whiteSpace=wrap;html=1;" vertex="1" parent="DxzTM2p7qGvY_Ps1vkA8-9">
          <mxGeometry y="26" width="180" height="54" as="geometry" />
        </mxCell>
        <mxCell id="DxzTM2p7qGvY_Ps1vkA8-11" value="" style="line;strokeWidth=1;fillColor=none;align=left;verticalAlign=middle;spacingTop=-1;spacingLeft=3;spacingRight=3;rotatable=0;labelPosition=right;points=[];portConstraint=eastwest;strokeColor=inherit;" vertex="1" parent="DxzTM2p7qGvY_Ps1vkA8-9">
          <mxGeometry y="80" width="180" height="8" as="geometry" />
        </mxCell>
        <mxCell id="DxzTM2p7qGvY_Ps1vkA8-12" value="+ AddQuantity(int): void&lt;div&gt;+ RemoveQuantity(int): void&lt;/div&gt;&lt;div&gt;&lt;div&gt;+ ToString(): string&lt;br&gt;&lt;/div&gt;&lt;/div&gt;" style="text;strokeColor=none;fillColor=none;align=left;verticalAlign=top;spacingLeft=4;spacingRight=4;overflow=hidden;rotatable=0;points=[[0,0.5],[1,0.5]];portConstraint=eastwest;whiteSpace=wrap;html=1;" vertex="1" parent="DxzTM2p7qGvY_Ps1vkA8-9">
          <mxGeometry y="88" width="180" height="52" as="geometry" />
        </mxCell>
        <mxCell id="DxzTM2p7qGvY_Ps1vkA8-13" value="Warehouse" style="swimlane;fontStyle=1;align=center;verticalAlign=top;childLayout=stackLayout;horizontal=1;startSize=26;horizontalStack=0;resizeParent=1;resizeParentMax=0;resizeLast=0;collapsible=1;marginBottom=0;whiteSpace=wrap;html=1;" vertex="1" parent="1">
          <mxGeometry x="290" y="480" width="260" height="130" as="geometry" />
        </mxCell>
        <mxCell id="DxzTM2p7qGvY_Ps1vkA8-14" value="- Items: List&amp;lt;WarehouseItem&amp;gt;&lt;div&gt;&lt;div&gt;&lt;br&gt;&lt;/div&gt;&lt;/div&gt;" style="text;strokeColor=none;fillColor=none;align=left;verticalAlign=top;spacingLeft=4;spacingRight=4;overflow=hidden;rotatable=0;points=[[0,0.5],[1,0.5]];portConstraint=eastwest;whiteSpace=wrap;html=1;" vertex="1" parent="DxzTM2p7qGvY_Ps1vkA8-13">
          <mxGeometry y="26" width="260" height="24" as="geometry" />
        </mxCell>
        <mxCell id="DxzTM2p7qGvY_Ps1vkA8-15" value="" style="line;strokeWidth=1;fillColor=none;align=left;verticalAlign=middle;spacingTop=-1;spacingLeft=3;spacingRight=3;rotatable=0;labelPosition=right;points=[];portConstraint=eastwest;strokeColor=inherit;" vertex="1" parent="DxzTM2p7qGvY_Ps1vkA8-13">
          <mxGeometry y="50" width="260" height="8" as="geometry" />
        </mxCell>
        <mxCell id="DxzTM2p7qGvY_Ps1vkA8-16" value="+ AddProduct(Product, DateTime, int): void&lt;br&gt;+ RegisterShipment(string, int): void&lt;div&gt;+ CountProduct(string): int&lt;/div&gt;&lt;div&gt;&lt;div&gt;&lt;span style=&quot;background-color: initial;&quot;&gt;+ ToString(): string&lt;/span&gt;&lt;br&gt;&lt;/div&gt;&lt;/div&gt;" style="text;strokeColor=none;fillColor=none;align=left;verticalAlign=top;spacingLeft=4;spacingRight=4;overflow=hidden;rotatable=0;points=[[0,0.5],[1,0.5]];portConstraint=eastwest;whiteSpace=wrap;html=1;" vertex="1" parent="DxzTM2p7qGvY_Ps1vkA8-13">
          <mxGeometry y="58" width="260" height="72" as="geometry" />
        </mxCell>
        <mxCell id="DxzTM2p7qGvY_Ps1vkA8-17" value="Reporting" style="swimlane;fontStyle=1;align=center;verticalAlign=top;childLayout=stackLayout;horizontal=1;startSize=26;horizontalStack=0;resizeParent=1;resizeParentMax=0;resizeLast=0;collapsible=1;marginBottom=0;whiteSpace=wrap;html=1;" vertex="1" parent="1">
          <mxGeometry x="290" y="260" width="260" height="140" as="geometry" />
        </mxCell>
        <mxCell id="DxzTM2p7qGvY_Ps1vkA8-18" value="&lt;div&gt;&lt;div&gt;&lt;br&gt;&lt;/div&gt;&lt;/div&gt;" style="text;strokeColor=none;fillColor=none;align=left;verticalAlign=top;spacingLeft=4;spacingRight=4;overflow=hidden;rotatable=0;points=[[0,0.5],[1,0.5]];portConstraint=eastwest;whiteSpace=wrap;html=1;" vertex="1" parent="DxzTM2p7qGvY_Ps1vkA8-17">
          <mxGeometry y="26" width="260" height="24" as="geometry" />
        </mxCell>
        <mxCell id="DxzTM2p7qGvY_Ps1vkA8-19" value="" style="line;strokeWidth=1;fillColor=none;align=left;verticalAlign=middle;spacingTop=-1;spacingLeft=3;spacingRight=3;rotatable=0;labelPosition=right;points=[];portConstraint=eastwest;strokeColor=inherit;" vertex="1" parent="DxzTM2p7qGvY_Ps1vkA8-17">
          <mxGeometry y="50" width="260" height="8" as="geometry" />
        </mxCell>
        <mxCell id="DxzTM2p7qGvY_Ps1vkA8-20" value="+ RegisterDelivery(Warehouse, Product, DateTime, int): void&lt;br&gt;+ RegisterShipment(Warehouse, string, int): void&lt;div&gt;+ InventoryReport(Warehouse):&amp;nbsp;&lt;span style=&quot;background-color: initial;&quot;&gt;void&lt;/span&gt;&lt;/div&gt;&lt;div&gt;&lt;div&gt;&lt;br&gt;&lt;/div&gt;&lt;/div&gt;" style="text;strokeColor=none;fillColor=none;align=left;verticalAlign=top;spacingLeft=4;spacingRight=4;overflow=hidden;rotatable=0;points=[[0,0.5],[1,0.5]];portConstraint=eastwest;whiteSpace=wrap;html=1;" vertex="1" parent="DxzTM2p7qGvY_Ps1vkA8-17">
          <mxGeometry y="58" width="260" height="82" as="geometry" />
        </mxCell>
        <mxCell id="DxzTM2p7qGvY_Ps1vkA8-21" value="" style="endArrow=diamondThin;endFill=1;endSize=24;html=1;rounded=0;exitX=-0.019;exitY=0.111;exitDx=0;exitDy=0;exitPerimeter=0;entryX=1.033;entryY=0.796;entryDx=0;entryDy=0;entryPerimeter=0;" edge="1" parent="1" source="DxzTM2p7qGvY_Ps1vkA8-16" target="DxzTM2p7qGvY_Ps1vkA8-10">
          <mxGeometry width="160" relative="1" as="geometry">
            <mxPoint x="230" y="700" as="sourcePoint" />
            <mxPoint x="390" y="700" as="targetPoint" />
          </mxGeometry>
        </mxCell>
        <mxCell id="DxzTM2p7qGvY_Ps1vkA8-22" value="" style="endArrow=block;startArrow=block;endFill=1;startFill=1;html=1;rounded=0;entryX=0.5;entryY=0;entryDx=0;entryDy=0;exitX=0.524;exitY=0.952;exitDx=0;exitDy=0;exitPerimeter=0;" edge="1" parent="1" source="DxzTM2p7qGvY_Ps1vkA8-8" target="DxzTM2p7qGvY_Ps1vkA8-9">
          <mxGeometry width="160" relative="1" as="geometry">
            <mxPoint x="292.03999999999996" y="420.004" as="sourcePoint" />
            <mxPoint x="290" y="560.72" as="targetPoint" />
          </mxGeometry>
        </mxCell>
        <mxCell id="DxzTM2p7qGvY_Ps1vkA8-23" value="" style="endArrow=block;startArrow=block;endFill=1;startFill=1;html=1;rounded=0;exitX=0;exitY=0.5;exitDx=0;exitDy=0;entryX=1.013;entryY=0.683;entryDx=0;entryDy=0;entryPerimeter=0;" edge="1" parent="1" source="DxzTM2p7qGvY_Ps1vkA8-6" target="DxzTM2p7qGvY_Ps1vkA8-2">
          <mxGeometry width="160" relative="1" as="geometry">
            <mxPoint x="492" y="404" as="sourcePoint" />
            <mxPoint x="360" y="360" as="targetPoint" />
          </mxGeometry>
        </mxCell>
        <mxCell id="DxzTM2p7qGvY_Ps1vkA8-24" value="" style="endArrow=block;startArrow=block;endFill=1;startFill=1;html=1;rounded=0;entryX=0.479;entryY=1.035;entryDx=0;entryDy=0;exitX=0.5;exitY=0;exitDx=0;exitDy=0;entryPerimeter=0;" edge="1" parent="1" source="DxzTM2p7qGvY_Ps1vkA8-13" target="DxzTM2p7qGvY_Ps1vkA8-20">
          <mxGeometry width="160" relative="1" as="geometry">
            <mxPoint x="502" y="414" as="sourcePoint" />
            <mxPoint x="500" y="555" as="targetPoint" />
          </mxGeometry>
        </mxCell>
      </root>
    </mxGraphModel>
  </diagram>
</mxfile>
